<svg width="18" height="11" viewBox="0 0 18 11" fill="none" xmlns="http://www.w3.org/2000/svg">
<path fill-rule="evenodd" clip-rule="evenodd" d="M9 0.333008L0.5 8.83301L2.48333 10.8163L9 4.29967L15.5167 10.8163L17.5 8.83301L9 0.333008Z" fill="#F68741"/>
</svg>
